Assignment 6
…
temp_url <- 'https://raw.githubusercontent.com/biodash/biodash.github.io/master/assets/data/temperature/co_oh_va_max_temp.txt'
temp_file <- 'state_max_temps.tsv'
download.file(url = temp_url, destfile = temp_file)

max_temps <- read_tsv("state_max_temps.tsv") |> 
  janitor::clean_names()

Part a (2 points)

Calculate the average temperature for each month across the whole data frame (using the data for all three states together).

print(max_temps)

# A tibble: 378 × 14
   state  year   jan   feb   mar   apr   may   jun   jul   aug   sep   oct   nov
   <chr> <dbl> <dbl> <dbl> <dbl> <dbl> <dbl> <dbl> <dbl> <dbl> <dbl> <dbl> <dbl>
 1 CO     1895  33.6  33.3  46.1  60.8  66.5  74    77.7  80    75.7  60.3  42.3
 2 CO     1896  41.2  41.3  44.8  58.3  68    80.2  80.9  81.2  70.1  59.2  42.8
 3 CO     1897  34.2  36.8  42.8  55.8  70.5  77.4  82    79.6  75.2  59.8  48.5
 4 CO     1898  32.6  43.4  43.5  59    61.8  76.6  81.9  82    72.2  57.7  43  
 5 CO     1899  34    29.4  43.7  58.7  66.5  77.2  80.2  79.8  74.9  58    50.5
 6 CO     1900  40.8  39.1  51.9  52.4  68.1  80.1  82.9  81.9  70.2  62.9  49.3
 7 CO     1901  39.4  37.9  46    55.5  67.6  76.8  86.7  80.7  72.7  63.1  52.9
 8 CO     1902  38.4  43.2  44.3  59    68.7  78.8  80.3  80.8  72.3  61.8  46.7
 9 CO     1903  37.5  28.3  44.1  55.6  63.8  69.8  80.9  80.3  70    62.4  49.7
10 CO     1904  36.6  47.3  51.4  58.3  65.5  71.7  79    77.8  72.2  60.2  53  
# ℹ 368 more rows
# ℹ 1 more variable: dec <dbl>
…
